{
"frames": {
	"survivor-idle_shotgun_0.png": {
		"frame": {"x":351, "y":52, "w":78, "h":51},
		"spriteSourceSize": {"x":0,"y":0,"w":78,"h":51},
		"sourceSize": {"w":78,"h":51}
	},
	"survivor-idle_shotgun_1.png": {
		"frame": {"x":502, "y":520, "w":78, "h":51},
		"spriteSourceSize": {"x":0,"y":0,"w":78,"h":51},
		"sourceSize": {"w":78,"h":51}
	},
	"survivor-idle_shotgun_10.png": {
		"frame": {"x":502, "y":468, "w":78, "h":51},
		"spriteSourceSize": {"x":0,"y":0,"w":78,"h":51},
		"sourceSize": {"w":78,"h":51}
	},
	"survivor-idle_shotgun_11.png": {
		"frame": {"x":502, "y":416, "w":78, "h":51},
		"spriteSourceSize": {"x":0,"y":0,"w":78,"h":51},
		"sourceSize": {"w":78,"h":51}
	},
	"survivor-idle_shotgun_12.png": {
		"frame": {"x":502, "y":364, "w":78, "h":51},
		"spriteSourceSize": {"x":0,"y":0,"w":78,"h":51},
		"sourceSize": {"w":78,"h":51}
	},
	"survivor-idle_shotgun_13.png": {
		"frame": {"x":502, "y":312, "w":78, "h":51},
		"spriteSourceSize": {"x":0,"y":0,"w":78,"h":51},
		"sourceSize": {"w":78,"h":51}
	},
	"survivor-idle_shotgun_14.png": {
		"frame": {"x":502, "y":260, "w":78, "h":51},
		"spriteSourceSize": {"x":0,"y":0,"w":78,"h":51},
		"sourceSize": {"w":78,"h":51}
	},
	"survivor-idle_shotgun_15.png": {
		"frame": {"x":502, "y":208, "w":78, "h":51},
		"spriteSourceSize": {"x":0,"y":0,"w":78,"h":51},
		"sourceSize": {"w":78,"h":51}
	},
	"survivor-idle_shotgun_16.png": {
		"frame": {"x":430, "y":156, "w":78, "h":51},
		"spriteSourceSize": {"x":0,"y":0,"w":78,"h":51},
		"sourceSize": {"w":78,"h":51}
	},
	"survivor-idle_shotgun_17.png": {
		"frame": {"x":430, "y":104, "w":78, "h":51},
		"spriteSourceSize": {"x":0,"y":0,"w":78,"h":51},
		"sourceSize": {"w":78,"h":51}
	},
	"survivor-idle_shotgun_18.png": {
		"frame": {"x":430, "y":52, "w":78, "h":51},
		"spriteSourceSize": {"x":0,"y":0,"w":78,"h":51},
		"sourceSize": {"w":78,"h":51}
	},
	"survivor-idle_shotgun_19.png": {
		"frame": {"x":502, "y":520, "w":78, "h":51},
		"spriteSourceSize": {"x":0,"y":0,"w":78,"h":51},
		"sourceSize": {"w":78,"h":51}
	},
	"survivor-idle_shotgun_2.png": {
		"frame": {"x":430, "y":52, "w":78, "h":51},
		"spriteSourceSize": {"x":0,"y":0,"w":78,"h":51},
		"sourceSize": {"w":78,"h":51}
	},
	"survivor-idle_shotgun_3.png": {
		"frame": {"x":430, "y":104, "w":78, "h":51},
		"spriteSourceSize": {"x":0,"y":0,"w":78,"h":51},
		"sourceSize": {"w":78,"h":51}
	},
	"survivor-idle_shotgun_4.png": {
		"frame": {"x":430, "y":156, "w":78, "h":51},
		"spriteSourceSize": {"x":0,"y":0,"w":78,"h":51},
		"sourceSize": {"w":78,"h":51}
	},
	"survivor-idle_shotgun_5.png": {
		"frame": {"x":502, "y":208, "w":78, "h":51},
		"spriteSourceSize": {"x":0,"y":0,"w":78,"h":51},
		"sourceSize": {"w":78,"h":51}
	},
	"survivor-idle_shotgun_6.png": {
		"frame": {"x":502, "y":260, "w":78, "h":51},
		"spriteSourceSize": {"x":0,"y":0,"w":78,"h":51},
		"sourceSize": {"w":78,"h":51}
	},
	"survivor-idle_shotgun_7.png": {
		"frame": {"x":502, "y":312, "w":78, "h":51},
		"spriteSourceSize": {"x":0,"y":0,"w":78,"h":51},
		"sourceSize": {"w":78,"h":51}
	},
	"survivor-idle_shotgun_8.png": {
		"frame": {"x":502, "y":364, "w":78, "h":51},
		"spriteSourceSize": {"x":0,"y":0,"w":78,"h":51},
		"sourceSize": {"w":78,"h":51}
	},
	"survivor-idle_shotgun_9.png": {
		"frame": {"x":502, "y":416, "w":78, "h":51},
		"spriteSourceSize": {"x":0,"y":0,"w":78,"h":51},
		"sourceSize": {"w":78,"h":51}
	},
	"survivor-meleeattack_shotgun_0.png": {
		"frame": {"x":0, "y":178, "w":89, "h":88},
		"spriteSourceSize": {"x":0,"y":0,"w":89,"h":88},
		"sourceSize": {"w":89,"h":88}
	},
	"survivor-meleeattack_shotgun_1.png": {
		"frame": {"x":0, "y":0, "w":89, "h":88},
		"spriteSourceSize": {"x":0,"y":0,"w":89,"h":88},
		"sourceSize": {"w":89,"h":88}
	},
	"survivor-meleeattack_shotgun_10.png": {
		"frame": {"x":0, "y":89, "w":89, "h":88},
		"spriteSourceSize": {"x":0,"y":0,"w":89,"h":88},
		"sourceSize": {"w":89,"h":88}
	},
	"survivor-meleeattack_shotgun_11.png": {
		"frame": {"x":0, "y":445, "w":89, "h":88},
		"spriteSourceSize": {"x":0,"y":0,"w":89,"h":88},
		"sourceSize": {"w":89,"h":88}
	},
	"survivor-meleeattack_shotgun_12.png": {
		"frame": {"x":0, "y":267, "w":89, "h":88},
		"spriteSourceSize": {"x":0,"y":0,"w":89,"h":88},
		"sourceSize": {"w":89,"h":88}
	},
	"survivor-meleeattack_shotgun_13.png": {
		"frame": {"x":0, "y":356, "w":89, "h":88},
		"spriteSourceSize": {"x":0,"y":0,"w":89,"h":88},
		"sourceSize": {"w":89,"h":88}
	},
	"survivor-meleeattack_shotgun_14.png": {
		"frame": {"x":180, "y":178, "w":89, "h":88},
		"spriteSourceSize": {"x":0,"y":0,"w":89,"h":88},
		"sourceSize": {"w":89,"h":88}
	},
	"survivor-meleeattack_shotgun_2.png": {
		"frame": {"x":180, "y":89, "w":89, "h":88},
		"spriteSourceSize": {"x":0,"y":0,"w":89,"h":88},
		"sourceSize": {"w":89,"h":88}
	},
	"survivor-meleeattack_shotgun_3.png": {
		"frame": {"x":180, "y":0, "w":89, "h":88},
		"spriteSourceSize": {"x":0,"y":0,"w":89,"h":88},
		"sourceSize": {"w":89,"h":88}
	},
	"survivor-meleeattack_shotgun_4.png": {
		"frame": {"x":90, "y":445, "w":89, "h":88},
		"spriteSourceSize": {"x":0,"y":0,"w":89,"h":88},
		"sourceSize": {"w":89,"h":88}
	},
	"survivor-meleeattack_shotgun_5.png": {
		"frame": {"x":90, "y":356, "w":89, "h":88},
		"spriteSourceSize": {"x":0,"y":0,"w":89,"h":88},
		"sourceSize": {"w":89,"h":88}
	},
	"survivor-meleeattack_shotgun_6.png": {
		"frame": {"x":90, "y":267, "w":89, "h":88},
		"spriteSourceSize": {"x":0,"y":0,"w":89,"h":88},
		"sourceSize": {"w":89,"h":88}
	},
	"survivor-meleeattack_shotgun_7.png": {
		"frame": {"x":90, "y":178, "w":89, "h":88},
		"spriteSourceSize": {"x":0,"y":0,"w":89,"h":88},
		"sourceSize": {"w":89,"h":88}
	},
	"survivor-meleeattack_shotgun_8.png": {
		"frame": {"x":90, "y":89, "w":89, "h":88},
		"spriteSourceSize": {"x":0,"y":0,"w":89,"h":88},
		"sourceSize": {"w":89,"h":88}
	},
	"survivor-meleeattack_shotgun_9.png": {
		"frame": {"x":90, "y":0, "w":89, "h":88},
		"spriteSourceSize": {"x":0,"y":0,"w":89,"h":88},
		"sourceSize": {"w":89,"h":88}
	},
	"survivor-move_shotgun_0.png": {
		"frame": {"x":351, "y":104, "w":78, "h":51},
		"spriteSourceSize": {"x":0,"y":0,"w":78,"h":51},
		"sourceSize": {"w":78,"h":51}
	},
	"survivor-move_shotgun_1.png": {
		"frame": {"x":0, "y":534, "w":78, "h":51},
		"spriteSourceSize": {"x":0,"y":0,"w":78,"h":51},
		"sourceSize": {"w":78,"h":51}
	},
	"survivor-move_shotgun_10.png": {
		"frame": {"x":79, "y":534, "w":78, "h":51},
		"spriteSourceSize": {"x":0,"y":0,"w":78,"h":51},
		"sourceSize": {"w":78,"h":51}
	},
	"survivor-move_shotgun_11.png": {
		"frame": {"x":351, "y":0, "w":78, "h":51},
		"spriteSourceSize": {"x":0,"y":0,"w":78,"h":51},
		"sourceSize": {"w":78,"h":51}
	},
	"survivor-move_shotgun_12.png": {
		"frame": {"x":509, "y":0, "w":78, "h":51},
		"spriteSourceSize": {"x":0,"y":0,"w":78,"h":51},
		"sourceSize": {"w":78,"h":51}
	},
	"survivor-move_shotgun_13.png": {
		"frame": {"x":423, "y":312, "w":78, "h":51},
		"spriteSourceSize": {"x":0,"y":0,"w":78,"h":51},
		"sourceSize": {"w":78,"h":51}
	},
	"survivor-move_shotgun_14.png": {
		"frame": {"x":351, "y":156, "w":78, "h":51},
		"spriteSourceSize": {"x":0,"y":0,"w":78,"h":51},
		"sourceSize": {"w":78,"h":51}
	},
	"survivor-move_shotgun_15.png": {
		"frame": {"x":423, "y":208, "w":78, "h":51},
		"spriteSourceSize": {"x":0,"y":0,"w":78,"h":51},
		"sourceSize": {"w":78,"h":51}
	},
	"survivor-move_shotgun_16.png": {
		"frame": {"x":423, "y":260, "w":78, "h":51},
		"spriteSourceSize": {"x":0,"y":0,"w":78,"h":51},
		"sourceSize": {"w":78,"h":51}
	},
	"survivor-move_shotgun_17.png": {
		"frame": {"x":430, "y":0, "w":78, "h":51},
		"spriteSourceSize": {"x":0,"y":0,"w":78,"h":51},
		"sourceSize": {"w":78,"h":51}
	},
	"survivor-move_shotgun_18.png": {
		"frame": {"x":423, "y":520, "w":78, "h":51},
		"spriteSourceSize": {"x":0,"y":0,"w":78,"h":51},
		"sourceSize": {"w":78,"h":51}
	},
	"survivor-move_shotgun_19.png": {
		"frame": {"x":0, "y":534, "w":78, "h":51},
		"spriteSourceSize": {"x":0,"y":0,"w":78,"h":51},
		"sourceSize": {"w":78,"h":51}
	},
	"survivor-move_shotgun_2.png": {
		"frame": {"x":423, "y":520, "w":78, "h":51},
		"spriteSourceSize": {"x":0,"y":0,"w":78,"h":51},
		"sourceSize": {"w":78,"h":51}
	},
	"survivor-move_shotgun_3.png": {
		"frame": {"x":430, "y":0, "w":78, "h":51},
		"spriteSourceSize": {"x":0,"y":0,"w":78,"h":51},
		"sourceSize": {"w":78,"h":51}
	},
	"survivor-move_shotgun_4.png": {
		"frame": {"x":423, "y":260, "w":78, "h":51},
		"spriteSourceSize": {"x":0,"y":0,"w":78,"h":51},
		"sourceSize": {"w":78,"h":51}
	},
	"survivor-move_shotgun_5.png": {
		"frame": {"x":423, "y":208, "w":78, "h":51},
		"spriteSourceSize": {"x":0,"y":0,"w":78,"h":51},
		"sourceSize": {"w":78,"h":51}
	},
	"survivor-move_shotgun_6.png": {
		"frame": {"x":351, "y":156, "w":78, "h":51},
		"spriteSourceSize": {"x":0,"y":0,"w":78,"h":51},
		"sourceSize": {"w":78,"h":51}
	},
	"survivor-move_shotgun_7.png": {
		"frame": {"x":423, "y":312, "w":78, "h":51},
		"spriteSourceSize": {"x":0,"y":0,"w":78,"h":51},
		"sourceSize": {"w":78,"h":51}
	},
	"survivor-move_shotgun_8.png": {
		"frame": {"x":509, "y":0, "w":78, "h":51},
		"spriteSourceSize": {"x":0,"y":0,"w":78,"h":51},
		"sourceSize": {"w":78,"h":51}
	},
	"survivor-move_shotgun_9.png": {
		"frame": {"x":351, "y":0, "w":78, "h":51},
		"spriteSourceSize": {"x":0,"y":0,"w":78,"h":51},
		"sourceSize": {"w":78,"h":51}
	},
	"survivor-reload_shotgun_0.png": {
		"frame": {"x":261, "y":377, "w":80, "h":54},
		"spriteSourceSize": {"x":0,"y":0,"w":80,"h":54},
		"sourceSize": {"w":80,"h":54}
	},
	"survivor-reload_shotgun_1.png": {
		"frame": {"x":261, "y":322, "w":80, "h":54},
		"spriteSourceSize": {"x":0,"y":0,"w":80,"h":54},
		"sourceSize": {"w":80,"h":54}
	},
	"survivor-reload_shotgun_10.png": {
		"frame": {"x":342, "y":385, "w":80, "h":54},
		"spriteSourceSize": {"x":0,"y":0,"w":80,"h":54},
		"sourceSize": {"w":80,"h":54}
	},
	"survivor-reload_shotgun_11.png": {
		"frame": {"x":342, "y":440, "w":80, "h":54},
		"spriteSourceSize": {"x":0,"y":0,"w":80,"h":54},
		"sourceSize": {"w":80,"h":54}
	},
	"survivor-reload_shotgun_12.png": {
		"frame": {"x":180, "y":432, "w":80, "h":54},
		"spriteSourceSize": {"x":0,"y":0,"w":80,"h":54},
		"sourceSize": {"w":80,"h":54}
	},
	"survivor-reload_shotgun_13.png": {
		"frame": {"x":180, "y":377, "w":80, "h":54},
		"spriteSourceSize": {"x":0,"y":0,"w":80,"h":54},
		"sourceSize": {"w":80,"h":54}
	},
	"survivor-reload_shotgun_14.png": {
		"frame": {"x":180, "y":487, "w":80, "h":54},
		"spriteSourceSize": {"x":0,"y":0,"w":80,"h":54},
		"sourceSize": {"w":80,"h":54}
	},
	"survivor-reload_shotgun_15.png": {
		"frame": {"x":180, "y":322, "w":80, "h":54},
		"spriteSourceSize": {"x":0,"y":0,"w":80,"h":54},
		"sourceSize": {"w":80,"h":54}
	},
	"survivor-reload_shotgun_16.png": {
		"frame": {"x":180, "y":267, "w":80, "h":54},
		"spriteSourceSize": {"x":0,"y":0,"w":80,"h":54},
		"sourceSize": {"w":80,"h":54}
	},
	"survivor-reload_shotgun_17.png": {
		"frame": {"x":261, "y":267, "w":80, "h":54},
		"spriteSourceSize": {"x":0,"y":0,"w":80,"h":54},
		"sourceSize": {"w":80,"h":54}
	},
	"survivor-reload_shotgun_18.png": {
		"frame": {"x":270, "y":0, "w":80, "h":54},
		"spriteSourceSize": {"x":0,"y":0,"w":80,"h":54},
		"sourceSize": {"w":80,"h":54}
	},
	"survivor-reload_shotgun_19.png": {
		"frame": {"x":270, "y":55, "w":80, "h":54},
		"spriteSourceSize": {"x":0,"y":0,"w":80,"h":54},
		"sourceSize": {"w":80,"h":54}
	},
	"survivor-reload_shotgun_2.png": {
		"frame": {"x":270, "y":110, "w":80, "h":54},
		"spriteSourceSize": {"x":0,"y":0,"w":80,"h":54},
		"sourceSize": {"w":80,"h":54}
	},
	"survivor-reload_shotgun_3.png": {
		"frame": {"x":270, "y":165, "w":80, "h":54},
		"spriteSourceSize": {"x":0,"y":0,"w":80,"h":54},
		"sourceSize": {"w":80,"h":54}
	},
	"survivor-reload_shotgun_4.png": {
		"frame": {"x":342, "y":220, "w":80, "h":54},
		"spriteSourceSize": {"x":0,"y":0,"w":80,"h":54},
		"sourceSize": {"w":80,"h":54}
	},
	"survivor-reload_shotgun_5.png": {
		"frame": {"x":342, "y":275, "w":80, "h":54},
		"spriteSourceSize": {"x":0,"y":0,"w":80,"h":54},
		"sourceSize": {"w":80,"h":54}
	},
	"survivor-reload_shotgun_6.png": {
		"frame": {"x":342, "y":330, "w":80, "h":54},
		"spriteSourceSize": {"x":0,"y":0,"w":80,"h":54},
		"sourceSize": {"w":80,"h":54}
	},
	"survivor-reload_shotgun_7.png": {
		"frame": {"x":261, "y":487, "w":80, "h":54},
		"spriteSourceSize": {"x":0,"y":0,"w":80,"h":54},
		"sourceSize": {"w":80,"h":54}
	},
	"survivor-reload_shotgun_8.png": {
		"frame": {"x":342, "y":495, "w":80, "h":54},
		"spriteSourceSize": {"x":0,"y":0,"w":80,"h":54},
		"sourceSize": {"w":80,"h":54}
	},
	"survivor-reload_shotgun_9.png": {
		"frame": {"x":261, "y":432, "w":80, "h":54},
		"spriteSourceSize": {"x":0,"y":0,"w":80,"h":54},
		"sourceSize": {"w":80,"h":54}
	},
	"survivor-shoot_shotgun_0.png": {
		"frame": {"x":423, "y":416, "w":78, "h":51},
		"spriteSourceSize": {"x":0,"y":0,"w":78,"h":51},
		"sourceSize": {"w":78,"h":51}
	},
	"survivor-shoot_shotgun_1.png": {
		"frame": {"x":423, "y":468, "w":78, "h":51},
		"spriteSourceSize": {"x":0,"y":0,"w":78,"h":51},
		"sourceSize": {"w":78,"h":51}
	},
	"survivor-shoot_shotgun_2.png": {
		"frame": {"x":423, "y":364, "w":78, "h":51},
		"spriteSourceSize": {"x":0,"y":0,"w":78,"h":51},
		"sourceSize": {"w":78,"h":51}
	}

},
"meta": {
	"image": "Xm1014.png",
	"size": {"w": 588, "h": 586},
	"scale": "1"
}
}