{
"frames": {
	"survivor-idle_handgun_0.png": {
		"frame": {"x":407, "y":224, "w":63, "h":54},
		"spriteSourceSize": {"x":0,"y":0,"w":63,"h":54},
		"sourceSize": {"w":63,"h":54}
	},
	"survivor-idle_handgun_1.png": {
		"frame": {"x":408, "y":110, "w":63, "h":54},
		"spriteSourceSize": {"x":0,"y":0,"w":63,"h":54},
		"sourceSize": {"w":63,"h":54}
	},
	"survivor-idle_handgun_10.png": {
		"frame": {"x":414, "y":0, "w":63, "h":54},
		"spriteSourceSize": {"x":0,"y":0,"w":63,"h":54},
		"sourceSize": {"w":63,"h":54}
	},
	"survivor-idle_handgun_11.png": {
		"frame": {"x":408, "y":55, "w":63, "h":54},
		"spriteSourceSize": {"x":0,"y":0,"w":63,"h":54},
		"sourceSize": {"w":63,"h":54}
	},
	"survivor-idle_handgun_12.png": {
		"frame": {"x":407, "y":389, "w":63, "h":54},
		"spriteSourceSize": {"x":0,"y":0,"w":63,"h":54},
		"sourceSize": {"w":63,"h":54}
	},
	"survivor-idle_handgun_13.png": {
		"frame": {"x":407, "y":334, "w":63, "h":54},
		"spriteSourceSize": {"x":0,"y":0,"w":63,"h":54},
		"sourceSize": {"w":63,"h":54}
	},
	"survivor-idle_handgun_14.png": {
		"frame": {"x":407, "y":279, "w":63, "h":54},
		"spriteSourceSize": {"x":0,"y":0,"w":63,"h":54},
		"sourceSize": {"w":63,"h":54}
	},
	"survivor-idle_handgun_15.png": {
		"frame": {"x":408, "y":165, "w":63, "h":54},
		"spriteSourceSize": {"x":0,"y":0,"w":63,"h":54},
		"sourceSize": {"w":63,"h":54}
	},
	"survivor-idle_handgun_16.png": {
		"frame": {"x":350, "y":0, "w":63, "h":54},
		"spriteSourceSize": {"x":0,"y":0,"w":63,"h":54},
		"sourceSize": {"w":63,"h":54}
	},
	"survivor-idle_handgun_17.png": {
		"frame": {"x":343, "y":441, "w":63, "h":54},
		"spriteSourceSize": {"x":0,"y":0,"w":63,"h":54},
		"sourceSize": {"w":63,"h":54}
	},
	"survivor-idle_handgun_18.png": {
		"frame": {"x":343, "y":386, "w":63, "h":54},
		"spriteSourceSize": {"x":0,"y":0,"w":63,"h":54},
		"sourceSize": {"w":63,"h":54}
	},
	"survivor-idle_handgun_19.png": {
		"frame": {"x":408, "y":110, "w":63, "h":54},
		"spriteSourceSize": {"x":0,"y":0,"w":63,"h":54},
		"sourceSize": {"w":63,"h":54}
	},
	"survivor-idle_handgun_2.png": {
		"frame": {"x":343, "y":386, "w":63, "h":54},
		"spriteSourceSize": {"x":0,"y":0,"w":63,"h":54},
		"sourceSize": {"w":63,"h":54}
	},
	"survivor-idle_handgun_3.png": {
		"frame": {"x":343, "y":441, "w":63, "h":54},
		"spriteSourceSize": {"x":0,"y":0,"w":63,"h":54},
		"sourceSize": {"w":63,"h":54}
	},
	"survivor-idle_handgun_4.png": {
		"frame": {"x":350, "y":0, "w":63, "h":54},
		"spriteSourceSize": {"x":0,"y":0,"w":63,"h":54},
		"sourceSize": {"w":63,"h":54}
	},
	"survivor-idle_handgun_5.png": {
		"frame": {"x":408, "y":165, "w":63, "h":54},
		"spriteSourceSize": {"x":0,"y":0,"w":63,"h":54},
		"sourceSize": {"w":63,"h":54}
	},
	"survivor-idle_handgun_6.png": {
		"frame": {"x":407, "y":279, "w":63, "h":54},
		"spriteSourceSize": {"x":0,"y":0,"w":63,"h":54},
		"sourceSize": {"w":63,"h":54}
	},
	"survivor-idle_handgun_7.png": {
		"frame": {"x":407, "y":334, "w":63, "h":54},
		"spriteSourceSize": {"x":0,"y":0,"w":63,"h":54},
		"sourceSize": {"w":63,"h":54}
	},
	"survivor-idle_handgun_8.png": {
		"frame": {"x":407, "y":389, "w":63, "h":54},
		"spriteSourceSize": {"x":0,"y":0,"w":63,"h":54},
		"sourceSize": {"w":63,"h":54}
	},
	"survivor-idle_handgun_9.png": {
		"frame": {"x":408, "y":55, "w":63, "h":54},
		"spriteSourceSize": {"x":0,"y":0,"w":63,"h":54},
		"sourceSize": {"w":63,"h":54}
	},
	"survivor-meleeattack_handgun_0.png": {
		"frame": {"x":0, "y":0, "w":72, "h":64},
		"spriteSourceSize": {"x":0,"y":0,"w":72,"h":64},
		"sourceSize": {"w":72,"h":64}
	},
	"survivor-meleeattack_handgun_1.png": {
		"frame": {"x":0, "y":65, "w":72, "h":64},
		"spriteSourceSize": {"x":0,"y":0,"w":72,"h":64},
		"sourceSize": {"w":72,"h":64}
	},
	"survivor-meleeattack_handgun_10.png": {
		"frame": {"x":0, "y":130, "w":72, "h":64},
		"spriteSourceSize": {"x":0,"y":0,"w":72,"h":64},
		"sourceSize": {"w":72,"h":64}
	},
	"survivor-meleeattack_handgun_11.png": {
		"frame": {"x":0, "y":390, "w":72, "h":64},
		"spriteSourceSize": {"x":0,"y":0,"w":72,"h":64},
		"sourceSize": {"w":72,"h":64}
	},
	"survivor-meleeattack_handgun_12.png": {
		"frame": {"x":0, "y":195, "w":72, "h":64},
		"spriteSourceSize": {"x":0,"y":0,"w":72,"h":64},
		"sourceSize": {"w":72,"h":64}
	},
	"survivor-meleeattack_handgun_13.png": {
		"frame": {"x":73, "y":325, "w":72, "h":64},
		"spriteSourceSize": {"x":0,"y":0,"w":72,"h":64},
		"sourceSize": {"w":72,"h":64}
	},
	"survivor-meleeattack_handgun_14.png": {
		"frame": {"x":0, "y":260, "w":72, "h":64},
		"spriteSourceSize": {"x":0,"y":0,"w":72,"h":64},
		"sourceSize": {"w":72,"h":64}
	},
	"survivor-meleeattack_handgun_2.png": {
		"frame": {"x":0, "y":325, "w":72, "h":64},
		"spriteSourceSize": {"x":0,"y":0,"w":72,"h":64},
		"sourceSize": {"w":72,"h":64}
	},
	"survivor-meleeattack_handgun_3.png": {
		"frame": {"x":73, "y":390, "w":72, "h":64},
		"spriteSourceSize": {"x":0,"y":0,"w":72,"h":64},
		"sourceSize": {"w":72,"h":64}
	},
	"survivor-meleeattack_handgun_4.png": {
		"frame": {"x":146, "y":0, "w":72, "h":64},
		"spriteSourceSize": {"x":0,"y":0,"w":72,"h":64},
		"sourceSize": {"w":72,"h":64}
	},
	"survivor-meleeattack_handgun_5.png": {
		"frame": {"x":73, "y":195, "w":72, "h":64},
		"spriteSourceSize": {"x":0,"y":0,"w":72,"h":64},
		"sourceSize": {"w":72,"h":64}
	},
	"survivor-meleeattack_handgun_6.png": {
		"frame": {"x":73, "y":130, "w":72, "h":64},
		"spriteSourceSize": {"x":0,"y":0,"w":72,"h":64},
		"sourceSize": {"w":72,"h":64}
	},
	"survivor-meleeattack_handgun_7.png": {
		"frame": {"x":73, "y":260, "w":72, "h":64},
		"spriteSourceSize": {"x":0,"y":0,"w":72,"h":64},
		"sourceSize": {"w":72,"h":64}
	},
	"survivor-meleeattack_handgun_8.png": {
		"frame": {"x":73, "y":0, "w":72, "h":64},
		"spriteSourceSize": {"x":0,"y":0,"w":72,"h":64},
		"sourceSize": {"w":72,"h":64}
	},
	"survivor-meleeattack_handgun_9.png": {
		"frame": {"x":73, "y":65, "w":72, "h":64},
		"spriteSourceSize": {"x":0,"y":0,"w":72,"h":64},
		"sourceSize": {"w":72,"h":64}
	},
	"survivor-move_handgun_0.png": {
		"frame": {"x":278, "y":226, "w":64, "h":55},
		"spriteSourceSize": {"x":0,"y":0,"w":64,"h":55},
		"sourceSize": {"w":64,"h":55}
	},
	"survivor-move_handgun_1.png": {
		"frame": {"x":343, "y":168, "w":64, "h":55},
		"spriteSourceSize": {"x":0,"y":0,"w":64,"h":55},
		"sourceSize": {"w":64,"h":55}
	},
	"survivor-move_handgun_10.png": {
		"frame": {"x":278, "y":58, "w":64, "h":55},
		"spriteSourceSize": {"x":0,"y":0,"w":64,"h":55},
		"sourceSize": {"w":64,"h":55}
	},
	"survivor-move_handgun_11.png": {
		"frame": {"x":278, "y":114, "w":64, "h":55},
		"spriteSourceSize": {"x":0,"y":0,"w":64,"h":55},
		"sourceSize": {"w":64,"h":55}
	},
	"survivor-move_handgun_12.png": {
		"frame": {"x":278, "y":170, "w":64, "h":55},
		"spriteSourceSize": {"x":0,"y":0,"w":64,"h":55},
		"sourceSize": {"w":64,"h":55}
	},
	"survivor-move_handgun_13.png": {
		"frame": {"x":278, "y":394, "w":64, "h":55},
		"spriteSourceSize": {"x":0,"y":0,"w":64,"h":55},
		"sourceSize": {"w":64,"h":55}
	},
	"survivor-move_handgun_14.png": {
		"frame": {"x":278, "y":282, "w":64, "h":55},
		"spriteSourceSize": {"x":0,"y":0,"w":64,"h":55},
		"sourceSize": {"w":64,"h":55}
	},
	"survivor-move_handgun_15.png": {
		"frame": {"x":343, "y":56, "w":64, "h":55},
		"spriteSourceSize": {"x":0,"y":0,"w":64,"h":55},
		"sourceSize": {"w":64,"h":55}
	},
	"survivor-move_handgun_16.png": {
		"frame": {"x":285, "y":0, "w":64, "h":55},
		"spriteSourceSize": {"x":0,"y":0,"w":64,"h":55},
		"sourceSize": {"w":64,"h":55}
	},
	"survivor-move_handgun_17.png": {
		"frame": {"x":343, "y":112, "w":64, "h":55},
		"spriteSourceSize": {"x":0,"y":0,"w":64,"h":55},
		"sourceSize": {"w":64,"h":55}
	},
	"survivor-move_handgun_18.png": {
		"frame": {"x":278, "y":338, "w":64, "h":55},
		"spriteSourceSize": {"x":0,"y":0,"w":64,"h":55},
		"sourceSize": {"w":64,"h":55}
	},
	"survivor-move_handgun_19.png": {
		"frame": {"x":343, "y":168, "w":64, "h":55},
		"spriteSourceSize": {"x":0,"y":0,"w":64,"h":55},
		"sourceSize": {"w":64,"h":55}
	},
	"survivor-move_handgun_2.png": {
		"frame": {"x":278, "y":338, "w":64, "h":55},
		"spriteSourceSize": {"x":0,"y":0,"w":64,"h":55},
		"sourceSize": {"w":64,"h":55}
	},
	"survivor-move_handgun_3.png": {
		"frame": {"x":343, "y":112, "w":64, "h":55},
		"spriteSourceSize": {"x":0,"y":0,"w":64,"h":55},
		"sourceSize": {"w":64,"h":55}
	},
	"survivor-move_handgun_4.png": {
		"frame": {"x":285, "y":0, "w":64, "h":55},
		"spriteSourceSize": {"x":0,"y":0,"w":64,"h":55},
		"sourceSize": {"w":64,"h":55}
	},
	"survivor-move_handgun_5.png": {
		"frame": {"x":343, "y":56, "w":64, "h":55},
		"spriteSourceSize": {"x":0,"y":0,"w":64,"h":55},
		"sourceSize": {"w":64,"h":55}
	},
	"survivor-move_handgun_6.png": {
		"frame": {"x":278, "y":282, "w":64, "h":55},
		"spriteSourceSize": {"x":0,"y":0,"w":64,"h":55},
		"sourceSize": {"w":64,"h":55}
	},
	"survivor-move_handgun_7.png": {
		"frame": {"x":278, "y":394, "w":64, "h":55},
		"spriteSourceSize": {"x":0,"y":0,"w":64,"h":55},
		"sourceSize": {"w":64,"h":55}
	},
	"survivor-move_handgun_8.png": {
		"frame": {"x":278, "y":170, "w":64, "h":55},
		"spriteSourceSize": {"x":0,"y":0,"w":64,"h":55},
		"sourceSize": {"w":64,"h":55}
	},
	"survivor-move_handgun_9.png": {
		"frame": {"x":278, "y":114, "w":64, "h":55},
		"spriteSourceSize": {"x":0,"y":0,"w":64,"h":55},
		"sourceSize": {"w":64,"h":55}
	},
	"survivor-reload_handgun_0.png": {
		"frame": {"x":212, "y":413, "w":65, "h":57},
		"spriteSourceSize": {"x":0,"y":0,"w":65,"h":57},
		"sourceSize": {"w":65,"h":57}
	},
	"survivor-reload_handgun_1.png": {
		"frame": {"x":212, "y":355, "w":65, "h":57},
		"spriteSourceSize": {"x":0,"y":0,"w":65,"h":57},
		"sourceSize": {"w":65,"h":57}
	},
	"survivor-reload_handgun_10.png": {
		"frame": {"x":146, "y":297, "w":65, "h":57},
		"spriteSourceSize": {"x":0,"y":0,"w":65,"h":57},
		"sourceSize": {"w":65,"h":57}
	},
	"survivor-reload_handgun_11.png": {
		"frame": {"x":146, "y":65, "w":65, "h":57},
		"spriteSourceSize": {"x":0,"y":0,"w":65,"h":57},
		"sourceSize": {"w":65,"h":57}
	},
	"survivor-reload_handgun_12.png": {
		"frame": {"x":146, "y":123, "w":65, "h":57},
		"spriteSourceSize": {"x":0,"y":0,"w":65,"h":57},
		"sourceSize": {"w":65,"h":57}
	},
	"survivor-reload_handgun_13.png": {
		"frame": {"x":146, "y":181, "w":65, "h":57},
		"spriteSourceSize": {"x":0,"y":0,"w":65,"h":57},
		"sourceSize": {"w":65,"h":57}
	},
	"survivor-reload_handgun_14.png": {
		"frame": {"x":212, "y":65, "w":65, "h":57},
		"spriteSourceSize": {"x":0,"y":0,"w":65,"h":57},
		"sourceSize": {"w":65,"h":57}
	},
	"survivor-reload_handgun_2.png": {
		"frame": {"x":212, "y":123, "w":65, "h":57},
		"spriteSourceSize": {"x":0,"y":0,"w":65,"h":57},
		"sourceSize": {"w":65,"h":57}
	},
	"survivor-reload_handgun_3.png": {
		"frame": {"x":146, "y":239, "w":65, "h":57},
		"spriteSourceSize": {"x":0,"y":0,"w":65,"h":57},
		"sourceSize": {"w":65,"h":57}
	},
	"survivor-reload_handgun_4.png": {
		"frame": {"x":212, "y":239, "w":65, "h":57},
		"spriteSourceSize": {"x":0,"y":0,"w":65,"h":57},
		"sourceSize": {"w":65,"h":57}
	},
	"survivor-reload_handgun_5.png": {
		"frame": {"x":212, "y":297, "w":65, "h":57},
		"spriteSourceSize": {"x":0,"y":0,"w":65,"h":57},
		"sourceSize": {"w":65,"h":57}
	},
	"survivor-reload_handgun_6.png": {
		"frame": {"x":212, "y":181, "w":65, "h":57},
		"spriteSourceSize": {"x":0,"y":0,"w":65,"h":57},
		"sourceSize": {"w":65,"h":57}
	},
	"survivor-reload_handgun_7.png": {
		"frame": {"x":146, "y":413, "w":65, "h":57},
		"spriteSourceSize": {"x":0,"y":0,"w":65,"h":57},
		"sourceSize": {"w":65,"h":57}
	},
	"survivor-reload_handgun_8.png": {
		"frame": {"x":146, "y":355, "w":65, "h":57},
		"spriteSourceSize": {"x":0,"y":0,"w":65,"h":57},
		"sourceSize": {"w":65,"h":57}
	},
	"survivor-reload_handgun_9.png": {
		"frame": {"x":219, "y":0, "w":65, "h":57},
		"spriteSourceSize": {"x":0,"y":0,"w":65,"h":57},
		"sourceSize": {"w":65,"h":57}
	},
	"survivor-shoot_handgun_0.png": {
		"frame": {"x":343, "y":224, "w":63, "h":53},
		"spriteSourceSize": {"x":0,"y":0,"w":63,"h":53},
		"sourceSize": {"w":63,"h":53}
	},
	"survivor-shoot_handgun_1.png": {
		"frame": {"x":343, "y":278, "w":63, "h":53},
		"spriteSourceSize": {"x":0,"y":0,"w":63,"h":53},
		"sourceSize": {"w":63,"h":53}
	},
	"survivor-shoot_handgun_2.png": {
		"frame": {"x":343, "y":332, "w":63, "h":53},
		"spriteSourceSize": {"x":0,"y":0,"w":63,"h":53},
		"sourceSize": {"w":63,"h":53}
	}

},
"meta": {
	"image": "FiveSeven.png",
	"size": {"w": 478, "h": 496},
	"scale": "1"
}
}