{
"frames": {
	"die0.png": {
		"frame": {"x":0, "y":0, "w":65, "h":65},
		"spriteSourceSize": {"x":2,"y":4,"w":67,"h":70},
		"sourceSize": {"w":67,"h":70}
	},
	"hit0.png": {
		"frame": {"x":0, "y":127, "w":59, "h":53},
		"spriteSourceSize": {"x":5,"y":3,"w":66,"h":58},
		"sourceSize": {"w":66,"h":58}
	},
	"hit1.png": {
		"frame": {"x":66, "y":0, "w":56, "h":54},
		"spriteSourceSize": {"x":3,"y":1,"w":62,"h":55},
		"sourceSize": {"w":62,"h":55}
	},
	"hit2.png": {
		"frame": {"x":60, "y":181, "w":56, "h":53},
		"spriteSourceSize": {"x":8,"y":2,"w":67,"h":58},
		"sourceSize": {"w":67,"h":58}
	},
	"hit3.png": {
		"frame": {"x":0, "y":181, "w":59, "h":53},
		"spriteSourceSize": {"x":5,"y":2,"w":66,"h":57},
		"sourceSize": {"w":66,"h":57}
	},
	"hit4.png": {
		"frame": {"x":60, "y":66, "w":58, "h":53},
		"spriteSourceSize": {"x":5,"y":1,"w":65,"h":56},
		"sourceSize": {"w":65,"h":56}
	},
	"shoot0.png": {
		"frame": {"x":119, "y":55, "w":51, "h":53},
		"spriteSourceSize": {"x":3,"y":2,"w":56,"h":56},
		"sourceSize": {"w":56,"h":56}
	},
	"shoot1.png": {
		"frame": {"x":60, "y":120, "w":57, "h":60},
		"spriteSourceSize": {"x":4,"y":2,"w":64,"h":63},
		"sourceSize": {"w":64,"h":63}
	},
	"shoot2.png": {
		"frame": {"x":0, "y":66, "w":59, "h":60},
		"spriteSourceSize": {"x":0,"y":2,"w":60,"h":63},
		"sourceSize": {"w":60,"h":63}
	},
	"shoot3.png": {
		"frame": {"x":59, "y":235, "w":58, "h":60},
		"spriteSourceSize": {"x":4,"y":2,"w":63,"h":62},
		"sourceSize": {"w":63,"h":62}
	},
	"shoot4.png": {
		"frame": {"x":0, "y":235, "w":58, "h":60},
		"spriteSourceSize": {"x":5,"y":2,"w":67,"h":63},
		"sourceSize": {"w":67,"h":63}
	},
	"walk0.png": {
		"frame": {"x":118, "y":233, "w":51, "h":53},
		"spriteSourceSize": {"x":2,"y":4,"w":58,"h":59},
		"sourceSize": {"w":58,"h":59}
	},
	"walk1.png": {
		"frame": {"x":221, "y":219, "w":50, "h":53},
		"spriteSourceSize": {"x":4,"y":3,"w":58,"h":59},
		"sourceSize": {"w":58,"h":59}
	},
	"walk10.png": {
		"frame": {"x":171, "y":54, "w":50, "h":53},
		"spriteSourceSize": {"x":2,"y":3,"w":55,"h":58},
		"sourceSize": {"w":55,"h":58}
	},
	"walk11.png": {
		"frame": {"x":222, "y":52, "w":50, "h":53},
		"spriteSourceSize": {"x":2,"y":2,"w":53,"h":56},
		"sourceSize": {"w":53,"h":56}
	},
	"walk12.png": {
		"frame": {"x":222, "y":106, "w":49, "h":52},
		"spriteSourceSize": {"x":3,"y":3,"w":55,"h":55},
		"sourceSize": {"w":55,"h":55}
	},
	"walk13.png": {
		"frame": {"x":272, "y":106, "w":49, "h":52},
		"spriteSourceSize": {"x":4,"y":2,"w":54,"h":55},
		"sourceSize": {"w":54,"h":55}
	},
	"walk2.png": {
		"frame": {"x":123, "y":0, "w":51, "h":53},
		"spriteSourceSize": {"x":0,"y":0,"w":53,"h":53},
		"sourceSize": {"w":53,"h":53}
	},
	"walk3.png": {
		"frame": {"x":117, "y":181, "w":52, "h":51},
		"spriteSourceSize": {"x":3,"y":4,"w":57,"h":57},
		"sourceSize": {"w":57,"h":57}
	},
	"walk4.png": {
		"frame": {"x":170, "y":218, "w":50, "h":53},
		"spriteSourceSize": {"x":5,"y":0,"w":61,"h":53},
		"sourceSize": {"w":61,"h":53}
	},
	"walk5.png": {
		"frame": {"x":170, "y":109, "w":51, "h":54},
		"spriteSourceSize": {"x":1,"y":1,"w":53,"h":55},
		"sourceSize": {"w":53,"h":55}
	},
	"walk6.png": {
		"frame": {"x":118, "y":120, "w":51, "h":54},
		"spriteSourceSize": {"x":3,"y":2,"w":56,"h":56},
		"sourceSize": {"w":56,"h":56}
	},
	"walk7.png": {
		"frame": {"x":175, "y":0, "w":50, "h":51},
		"spriteSourceSize": {"x":1,"y":3,"w":53,"h":55},
		"sourceSize": {"w":53,"h":55}
	},
	"walk8.png": {
		"frame": {"x":170, "y":164, "w":50, "h":53},
		"spriteSourceSize": {"x":3,"y":2,"w":56,"h":56},
		"sourceSize": {"w":56,"h":56}
	},
	"walk9.png": {
		"frame": {"x":221, "y":164, "w":50, "h":54},
		"spriteSourceSize": {"x":4,"y":3,"w":57,"h":57},
		"sourceSize": {"w":57,"h":57}
	}

},
"meta": {
	"image": "zombie0.png",
	"size": {"w": 322, "h": 322},
	"scale": "1"
}
}