{
"frames": {
	"flame0.png": {
		"frame": {"x":213, "y":0, "w":99, "h":93},
		"spriteSourceSize": {"x":4,"y":6,"w":105,"h":101},
		"sourceSize": {"w":105,"h":101}
	},
	"flame1.png": {
		"frame": {"x":109, "y":0, "w":103, "h":95},
		"spriteSourceSize": {"x":8,"y":2,"w":115,"h":97},
		"sourceSize": {"w":115,"h":97}
	},
	"flame2.png": {
		"frame": {"x":0, "y":169, "w":106, "h":82},
		"spriteSourceSize": {"x":0,"y":0,"w":108,"h":86},
		"sourceSize": {"w":108,"h":86}
	},
	"flame3.png": {
		"frame": {"x":0, "y":84, "w":107, "h":84},
		"spriteSourceSize": {"x":0,"y":0,"w":107,"h":90},
		"sourceSize": {"w":107,"h":90}
	},
	"flame4.png": {
		"frame": {"x":0, "y":0, "w":108, "h":83},
		"spriteSourceSize": {"x":0,"y":2,"w":110,"h":93},
		"sourceSize": {"w":110,"h":93}
	},
	"flame5.png": {
		"frame": {"x":107, "y":169, "w":105, "h":88},
		"spriteSourceSize": {"x":0,"y":1,"w":106,"h":91},
		"sourceSize": {"w":106,"h":91}
	}

},
"meta": {
	"image": "flame.png",
	"size": {"w": 313, "h": 313},
	"scale": "1"
}
}